#use wml::debian::language_names
#use wml::debian::common_tags

#include "$(ENGLISHDIR)/devel/leader.data"

<bind-gettext-domain domain="organization" />

# <gettext domain="organization">Delegates</gettext>
# <gettext domain="organization">Installation</gettext>
# <gettext domain="organization">Mailing list</gettext>

<define-tag spaces>&nbsp;&nbsp;&nbsp;&nbsp;&nbsp;</define-tag>
<define-tag job><li>%attributes —</define-tag>
<define-tag genericemail>&lt;<a href="mailto:%0">%0</a>&gt;</define-tag>
<define-tag delegationmail>— <a href="https://lists.debian.org/%0"><gettext domain="organization">delegation mail</gettext></a></define-tag>
<define-tag appointmentmail>— <a href="https://lists.debian.org/%0"><gettext domain="organization">appointment mail</gettext></a></define-tag>
# One male delegate
<define-tag delegate_male> (<gettext domain="organization"><void id="male"/>delegate</gettext>)</define-tag>
# One female delegate
<define-tag delegate_female> (<gettext domain="organization"><void id="female"/>delegate</gettext>)</define-tag>
# current* is only for positions necessarily transitional, such as the leader
<define-tag current><br>
<spaces><em><gettext domain="organization">current</gettext></em>&nbsp;</define-tag>
<define-tag currentmail><br>
<spaces><em><gettext domain="organization">current</gettext></em> %0 &lt;<a href="mailto:%1">%1</a>&gt;</define-tag>
<define-tag member><br>
<spaces><em><gettext domain="organization">member</gettext></em>&nbsp;</define-tag>
<define-tag membermail><br>
<spaces><em><gettext domain="organization">member</gettext></em> %0 &lt;<a href="mailto:%1">%1</a>&gt;</define-tag>
# for release team we use <manager>, <srm>, <wizard> and <assistant>
<define-tag manager><br>
<spaces><em><gettext domain="organization">manager</gettext></em>&nbsp;</define-tag>
<define-tag srm><br>
<spaces><em><abbr title="<gettext domain="organization">Stable Release Manager</gettext>"><gettext domain="organization">SRM</gettext></abbr></em>&nbsp;</define-tag>
<define-tag wizard><br>
<spaces><em><gettext domain="organization">wizard</gettext></em>&nbsp;</define-tag>
# we only use the chair tag once, for techctte, I wonder why it's here.
<define-tag chair>(<em><gettext domain="organization">chair</gettext></em>)</define-tag>
# assistant tag added for DPL "second in command"
<define-tag assistant><br>
<spaces><em><gettext domain="organization">assistant</gettext></em>&nbsp;</define-tag>
<define-tag secretary><br>
<spaces><em><gettext domain="organization">secretary</gettext></em>&nbsp;</define-tag>
<define-tag representative><br>
<spaces><em><gettext domain="organization">representative</gettext></em>&nbsp;</define-tag>
<define-tag representative-role><br>
<spaces><em><gettext domain="organization">role</gettext></em>&nbsp;</define-tag>
<define-tag note><br>
<em>%attributes</em></define-tag>

# --------------------------------------------------------------------------

<div class="tip">
<p>
In the following list, <q>current</q> is used for positions that are
transitional (elected or appointed with a certain expiration date).
</p>
</div>

# there is no officers page, yet
# <em><strong><a href="$(HOME)/intro/officers"><gettext domain="organization">Officers</gettext></a></em></strong>
<ul class="toc">
<li><a href="#officers"><gettext domain="organization">Officers</gettext></a></li>
<li><a href="#distribution"><gettext domain="organization">Distribution</gettext></a></li>
<li><a href="#commsoutreach"><gettext domain="organization">Communication and Outreach</gettext></a>
<ul>
 <li><a href="#data-protection"><gettext domain="organization">Data Protection team</gettext></a></li>
  <li><a href="#publicity"><gettext domain="organization">Publicity team</gettext></a></li>
</ul></li>
<li><a href="#memberships"><gettext domain="organization">Membership in other organizations</gettext></a></li>
<li><a href="#support"><gettext domain="organization">Support and Infrastructure</gettext></a></li>
</ul>

<a name="officers"></a>
<h3><gettext domain="organization">Officers</gettext></h3>

<ul>
  <job <a name="leader" href="$(HOME)/devel/leader"><gettext domain="organization">Leader</gettext></a>> <genericemail leader@debian.org>
    <current><current_leader>
  <job <a name="tech-ctte" href="$(HOME)/devel/tech-ctte"><gettext domain="organization">Technical Committee</gettext></a>> <genericemail debian-ctte@lists.debian.org> <appointmentmail 20150308165327.GA13601@xanadu.blop.info> 
  <appointmentmail 20160416194934.GD2171@halon.org.uk> 
  <appointmentmail 20170413084314.p3xvsipx7mcnuer7@dogguy.org> 
  <appointmentmail 1498053993.4017640.1016684592.748E3111@webmail.messagingengine.com>
  <appointmentmail 1514922200.4161380.1222079088.19895321@webmail.messagingengine.com>
  <appointmentmail 1521224077.296447.1305789200.53C43961@webmail.messagingengine.com>
    <current>Didier Raboud
    <current>Philip Hands
    <current>Tollef Fog Heen
    <current>Margarita Manterola <chair>
    <current>David Bremner
    <current>Niko Tyni
    <current>Gunnar Wolf
    <current>Simon McVittie
  <job <a name="secretary" href="$(HOME)/devel/secretary"><gettext domain="organization">Secretary</gettext></a>> <genericemail secretary@debian.org> <appointmentmail 1518099312.462996.1264030680.6755A71E@webmail.messagingengine.com>
    <current>Kurt Roeckx
</ul>

<a name="distribution"></a>
<h3><gettext domain="organization">Distribution</gettext></h3>

<ul>
  <job <a name="devel" href="$(HOME)/devel/"><gettext domain="organization">Development Projects</gettext></a>> <genericemail debian-devel@lists.debian.org>
  <job <a name="ftpmaster" href="https://ftp-master.debian.org/"><gettext domain="organization">FTP Archives</gettext></a>> <genericemail ftpmaster@debian.org> <delegationmail 1511172581.3130639.1178259472.01A2D970@webmail.messagingengine.com>
  <ul>
    <job <a name="ftpmasters"><gettext domain="organization">FTP Masters</gettext></a>>
      <member>Thorsten Alteholz <delegate_male>
      <member>Ansgar Burchardt <delegate_male>
      <member>Joerg Jaspert <delegate_male>
      <member>Luke W. Faraone <delegate_male>
      <member>Mark Hymers <delegate_male>
    <job <a name="ftpassistants"><gettext domain="organization">FTP Assistants</gettext></a>>
      <member>Chris Lamb
      <member>Luca Falavigna
      <member>Paul Tagliamonte
      <member>Scott Kitterman
    <job <a name="ftpwizards"><gettext domain="organization">FTP Wizards</gettext></a>>
      <member>Mike O'Connor
      <member>Torsten Werner
  </ul>
<job <a name="backports" href="https://backports.debian.org/"><gettext domain="organization">Backports</gettext></a>> <genericemail backports-team@debian.org> <delegationmail 20110706145100.GA13459@upsilon.cc>
  <ul>
  <job <a name="backports-team"><gettext domain="organization">Backports Team</gettext></a>>
    <member>Alexander Wirt<delegate_male>
    <member>Rhonda D'Vine<delegate_female>
  </ul>
  <job <a name="release"><gettext domain="organization">Release Management</gettext></a>>
  <ul>
    <job <a name="release-team" href="https://release.debian.org/"><gettext domain="organization">Release Team</gettext></a>> <genericemail debian-release@lists.debian.org> <delegationmail 1548697322.3290657.1645404896.0E85D59D@webmail.messagingengine.com>
      <manager>Emilio Pozuelo Monfort<delegate_male>
      <manager>Niels Thykier<delegate_male>
      <srm>Adam D. Barratt<delegate_male>
      <srm>Julien Cristau<delegate_male>
      <srm>Philipp Kern<delegate_male>
      <assistant>Andreas Barth<delegate_male>
      <assistant>Cyril Brulebois<delegate_male>
      <assistant>Felipe Augusto van de Wiel<delegate_male>
      <assistant>Ivo De Decker<delegate_male>
      <assistant>Jonathan Wiltshire<delegate_male>
      <assistant>Mehdi Dogguy<delegate_male>
      <assistant>Paul Gevers<delegate_male>
    <job <a name="qa" href="https://qa.debian.org/"><gettext domain="organization">Quality Assurance</gettext></a>> <genericemail debian-qa@lists.debian.org>
    <job <a name="installer"><gettext domain="organization">Installation System Team</gettext></a>> <genericemail debian-boot@lists.debian.org>
    <job <a name="live" href="https://wiki.debian.org/DebianLive"><gettext domain="organization">Debian Live Team</gettext></a>> <genericemail debian-live@lists.debian.org>
    <job <a name="release-notes"><gettext domain="organization">Release Notes</gettext></a>> <genericemail debian-doc@lists.debian.org>
      <member>Wolfgang Martin Borgert
    <job <a name="cd" href="$(HOME)/CD/"><gettext domain="organization">CD Images</gettext></a>>
    <ul>
      <job <a name="cd-production"><gettext domain="organization">Production</gettext></a>> <genericemail debian-cd@lists.debian.org>
        <member>Philip Hands
        <member>Rapha&euml;l Hertzog
        <member>Richard Atterer
        <member>Santiago Garc&iacute;a Manti&ntilde;&aacute;n
        <member>Steve McIntyre
        <member>Mattias Wadenstein
    </ul>
    <job <a name="testing"><gettext domain="organization">Testing</gettext></a>> <genericemail debian-testing@lists.debian.org>
  </ul>
  <job <a name="cloud" href="https://wiki.debian.org/Teams/Cloud"><gettext domain="organization">Cloud Team</gettext></a>> <genericemail debian-cloud@lists.debian.org> <delegationmail 1539262870.3015827.1538511576.1764CBBD@webmail.messagingengine.com>
      <member>Luca Filipozzi<delegate_male>
      <member>Steve McIntyre<delegate_male>
      <member>Tomasz Rybak<delegate_male>
  <job <a name="buildd" href="https://buildd.debian.org/"><gettext domain="organization">Autobuilding infrastructure</gettext></a>>
  <ul>
    <job <a name="wanna-build"><gettext domain="organization">Wanna-build team</gettext></a>> <genericemail debian-wb-team@lists.debian.org>
      <member>Andreas Barth
      <member>Aurelien Jarno
      <member>Joachim Breitner
      <member>Kurt Roeckx
      <member>Mehdi Dogguy
      <member>Philipp Kern
    <job <a name="buildd-adm"><gettext domain="organization">Buildd administration</gettext></a>> <var>&lt;architecture&gt;</var>@buildd.debian.org
      <member>Andreas Barth
      <member>Aurelien Jarno
      <member>Christoph Egger
      <member>Colin Tuckley
      <member>Dann Frazier
      <member>Frederik Sch&uuml;ler
      <member>Hector Oron
      <member>Konstantinos Margaritis
      <member>Kurt Roeckx
      <member>LaMont Jones
      <member>Michael Banck
      <member>Peter De Schrijver
      <member>Philipp Kern
      <member>Riku Voipio
      <member>Samuel Thibault
      <member>Wouter Verhelst
  </ul>
  <job <a name="doc" href="$(HOME)/doc/"><gettext domain="organization">Documentation</gettext></a>> <genericemail debian-doc@lists.debian.org>
    <member>Javier Fern&aacute;ndez-Sanguino
    <member>W. Martin Borgert
    <member>Osamu Aoki
    <member>Josip Rodin
  <job <a name="wnpp" href="$(HOME)/devel/wnpp/"><gettext domain="organization">Work-Needing and Prospective Packages list</gettext></a>> <genericemail debian-wnpp@lists.debian.org>
    <member>Matej Vela
  <job <a name="ports" href="$(HOME)/ports/"><gettext domain="organization">Ports</gettext> — GNU/Linux</a>>
    <ul>
    <job <a name="alpha" href="$(HOME)/ports/alpha/">Alpha</a>> <genericemail debian-alpha@lists.debian.org>
      <membermail "Michael Cree" mcree@orcon.net.nz>
      <membermail "Bob Tracy" rct@gherkin.frus.com>
      <membermail "Bill MacAllister" whm@stanford.edu>
    <job <a name="amd64" href="$(HOME)/ports/amd64/">AMD64</a>> <genericemail debian-amd64@lists.debian.org>
    <job <a name="arm" href="$(HOME)/ports/arm/">ARM</a>> <genericemail debian-arm@lists.debian.org>
    <job <a name="i386" href="$(HOME)/ports/i386/">i386</a>> <genericemail debian-devel@lists.debian.org>
    <job <a name="ia64" href="$(HOME)/ports/ia64/">IA-64</a>> <genericemail debian-ia64@lists.debian.org>
      <member>Dann Frazier
    <job <a name="m68k" href="$(HOME)/ports/m68k/">m68k</a>> <genericemail debian-68k@lists.debian.org>
    <job <a name="mips" href="$(HOME)/ports/mips/">MIPS</a>> <genericemail debian-mips@lists.debian.org>
    <job <a name="hppa" href="$(HOME)/ports/hppa/">PA-RISC</a>> <genericemail debian-hppa@lists.debian.org>
      <member>Carlos O'Donell
      <member>John David Anglin
      <member>Thibaut Varene
    <job <a name="powerpc" href="$(HOME)/ports/powerpc/">PowerPC</a>> <genericemail debian-powerpc@lists.debian.org>
    <job <a name="riscv" href="https://wiki.debian.org/RISC-V">RISC-V</a>> <genericemail debian-riscv@lists.debian.org>
    <job <a name="s390" href="$(HOME)/ports/s390/">S/390</a>> <genericemail debian-s390@lists.debian.org>
      <member>Philipp Kern
    <job <a name="sparc" href="$(HOME)/ports/sparc/">SPARC/UltraSPARC</a>> <genericemail debian-sparc@lists.debian.org>
    <job <a name="superh" href="https://wiki.debian.org/SH4">SuperH</a>> <genericemail debian-superh@lists.debian.org>
  </ul>
  <job <a name="hurd" href="$(HOME)/ports/hurd/">GNU/Hurd</a>> <genericemail debian-hurd@lists.debian.org>
    <member>Samuel Thibault
    <member>Svante Signell
  <job <a name="kfreebsd" href="$(HOME)/ports/kfreebsd-gnu/">GNU/kFreeBSD</a>> <genericemail debian-bsd@lists.debian.org>
    <member>Steven Chamberlain
    <member>Christoph Egger
  <job <a name="special"><gettext domain="organization">Special Configurations</gettext></a>>
  <ul>
    <job <a name="laptop"><gettext domain="organization">Laptops</gettext></a>> <genericemail debian-laptop@lists.debian.org>
    <job <a name="firewall"><gettext domain="organization">Firewalls</gettext></a>> <genericemail debian-firewall@lists.debian.org>
    <job <a name="embedded"><gettext domain="organization">Embedded systems</gettext></a>> <genericemail debian-embedded@lists.debian.org>
  </ul>
</ul>

<a name="commsoutreach"></a>
<h3><gettext domain="organization">Communication and Outreach</gettext></h3>

<ul>
   <job <a name="data-protection"><gettext domain="organization">Data Protection team</gettext></a>> <genericemail data-protection@debian.org> <delegationmail 1528227688.412908.1397547576.57703279@webmail.messagingengine.com>
    <member>Jonathan McDowell<delegate_male>
    <member>Tollef Fog Heen<delegate_male>

    <job <a name="publicity" href="https://wiki.debian.org/Teams/Publicity"><gettext domain="organization">Publicity team</gettext></a>> <genericemail debian-publicity@lists.debian.org> <delegationmail 1527454813.1668886.1387370912.1CCDF411@webmail.messagingengine.com>
    <member>Laura Arjona Reina<delegate_female>
    <member>Donald Norwood<delegate_male>
    <note <gettext domain="organization">Press Contact</gettext> — <genericemail press@debian.org>>

  <job <a name="website" href="$(HOME)/devel/website/"><gettext domain="organization">Web Pages</gettext></a>> <genericemail debian-www@lists.debian.org>
    <member>Rhonda D'Vine
    <member>K&aring;re Thor Olsen
    <member>Simon Paillard
    <member>Martin Zobel-Helas
    <member>Paul Wise
    <member>Laura Arjona Reina
    <member>Frank Lichtenheld
    <member>Josip Rodin
    <member>Carsten Schoenert
    <member>Thomas Lange

  <job <a name="planet" href="https://planet.debian.org/"><gettext domain="organization">Planet Debian</gettext></a>> <genericemail planet@debian.org>
    <member>Benjamin Mako Hill
    <member>Joerg Jaspert
    <member>Jordi Mallach

  <job <a name="outreach" href="https://wiki.debian.org/Teams/Outreach"><gettext domain="organization">Outreach</gettext></a>> <genericemail outreach@debian.org> <delegationmail 785e2f3c-afcb-45f3-a6b2-9af397c48d34@www.fastmail.com>
    <member>Molly de Blanc <delegate_female>
    <member>Pranav Jain <delegate_male>
    <member>Jaminy Prabaharan <delegate_female>

  <job <a name="women" href="https://www.debian.org/women/"><gettext domain="organization">Debian Women Project</gettext></a>> <genericemail debian-women@lists.debian.org>
    <member>Amaya Rodrigo
    <member>Erinn Clark
    <member>Hanna Wallach
    <member>Helen Faulkner
    <member>Margarita Manterola
    <member>Meike Reichle

  <job <a name="antiharassment" href="https://wiki.debian.org/AntiHarassment"><gettext domain="organization">Anti-harassment</gettext></a>> <genericemail antiharassment@debian.org>
    <member>Steve McIntyre
    <member>Martina Ferrari
    <member>Molly de Blanc

  <job <a name="events" href="$(HOME)/events/"><gettext domain="organization">Events</gettext></a>> <genericemail events@debian.org>
    <member>Alexander Wirt
    <member>Franziska Lichtblau
    <member>Geert Stappers
    <member>Luca Capello
    <member>Paulo Henrique de Lima Santana

  <job <a name="debconf" href="https://www.debconf.org/"><gettext domain="organization">DebConf Committee</gettext></a>> <genericemail debconf-team@lists.debian.org> <delegationmail 1539102695.494466.1536122624.220EF67C@webmail.messagingengine.com>
    <member>Jonathan Cristopher Carter<delegate_male>
    <member>Daniel Lange<delegate_male>
    <member>Lucas Nussbaum<delegate_male>
    <member>Didier Raboud<delegate_male>
    <member>Stefano Rivera<delegate_male>

  <job <a name="partners" href="$(HOME)/partners/"><gettext domain="organization">Partner Program</gettext></a>> <genericemail partners@debian.org>
    <member>Andre Felipe Machado
    <member>Laura Arjona Reina
    <member>Luca Filipozzi

  <job <a name="donations-hardware" href="$(HOME)/donations#equipment_donations"><gettext domain="organization">Hardware Donations Coordination</gettext></a>> <genericemail hardware-donations@debian.org>
    <member>Luca Filipozzi
    <member>Bernd Zeimetz
    <member>Martin Zobel-Helas
    <member>Benjamin Mako Hill
    <member>Rob Bradford

</ul>

<a name="memberships"></a>
<h3><gettext domain="organization">Membership in other organizations</gettext></h3>

<p>Debian is a member of the following organizations, either directly
or through <a href="https://www.spi-inc.org/">SPI</a>.</p>

<ul>
  <job <a name="org-gnome"><gettext domain="organization">GNOME Foundation</gettext></a>>
    <representative>Matthew Garrett
  <job <a name="org-lpi"><gettext domain="organization">Linux Professional Institute</gettext></a>>
    <representative>Christoph Lameter
  <job <a name="org-linux-mag"><gettext domain="organization">Linux Magazine</gettext></a>>
    <representative-role>Advisory Council
  <job <a name="org-linuxbase"><gettext domain="organization">Linux Standards Base</gettext></a>>
    <representative>Wichert Akkerman
  <job <a name="org-freestandards"><gettext domain="organization">Free Standards Group</gettext></a>>
  <job <a name="org-schoolforge"><gettext domain="organization">SchoolForge</gettext></a>>
    <representative>Ben Armstrong
    <representative>Rapha&euml;l Hertzog
  <job <a name="org-oasis-open"><gettext domain="organization">OASIS: Organization
      for the Advancement of Structured Information Standards</gettext></a>>
    <representative>Mark Johnson
  <job <a name="org-oval"><gettext domain="organization">OVAL: Open Vulnerability
      Assessment Language</gettext></a>>
    <representative>Javier Fern&aacute;ndez-Sanguino
  <job <a name="org-osi"><gettext domain="organization">Open Source Initiative</gettext></a>>
</ul>

<a name="support"></a>
<h3><gettext domain="organization">Support and Infrastructure</gettext></h3>

<ul>
  <job <a name="user-support" href="$(HOME)/support"><gettext domain="organization">User support</gettext></a>>
    <ul>
<perl>
	open LISTS, "<", "$(HOME)/../english/MailingLists/lists.cfg"
		or die "Can't open lists.cfg: $!\n";

	my ( %entry, %userlists );
	while (<LISTS>) {
		next if /^#/;
		if (/^\s*$/) {
			process_entry( %entry );
			%entry = ();
			next;
		}
		if (/^([^:]+):\s*(.*)$/) {
			$entry{$1} = $2;
		}
	}
	close LISTS;
	if (keys %entry) { process_entry( %entry ); }

	sub process_entry {
		my %entry = @_;

		return unless $entry{List};
		return unless $entry{Section};
		$entry{Language} ||= 'English';

		if ($entry{List} =~ /(debian-user-(.*)\@lists.debian.org)/) {
			$userlists{$2} = $1;
#			warn "$2: $1\n";
			return;
		}

		if ($entry{List} =~ /(debian-(chinese-(?:big5|gb))\@lists.debian.org)/) {
			my ($lang,$list) = ($2,$1);
			$lang =~ tr/-/_/;
			$userlists{$lang} = $list;
			#warn "$lang: $list\n";
			return;
		}

		if (($entry{List} =~ /(debian-([^-]+)\@lists.debian.org)/)
		    && ($entry{Section} eq 'user')
                    && ($entry{Language} ne 'English')) {
			$userlists{$2} = $1;
#			warn "$2: $1\n";
			return;
		}
	}

	my $userlists_lang = {};

	$userlists_lang{$trans{$CUR_ISO_LANG}{english}} = "debian-user\@lists.debian.org";
	foreach my $list (keys %userlists) {
		unless (exists($trans{$CUR_ISO_LANG}{$list}))
		{
			warn("Language `$list' not found in translation table'")
		}
 		$userlists_lang{$trans{$CUR_ISO_LANG}{$list}} = "$userlists{$list}";
	}

	foreach my $list (sort langcmp keys %userlists_lang) {
		print "<li>$list — &lt;<a href=\"mailto:$userlists_lang{$list}\">$userlists_lang{$list}</a>&gt;</li>\n";
	}
</perl>
    </ul>
  <job <a name="bugs" href="https://bugs.debian.org/"><gettext domain="organization">Bug Tracking System</gettext></a>> <genericemail owner@bugs.debian.org>
    <member>Don Armstrong
    <member>Blars Blarson
    <member>Josip Rodin
    <member>Colin Watson
  <job <a name="lists" href="$(HOME)/MailingLists/"><gettext domain="organization">Mailing Lists Administration and Mailing List Archives</gettext></a>> <genericemail listmaster@lists.debian.org>
    <member>Alexander Wirt
    <member>Cord Beermann
    <member>David Moreno Garza
    <member>Don Armstrong
    <member>Joey Schulze
    <member>Martin Zobel-Helas
    <member>Pascal Hakim
  <job <a name="nmfrontdesk" href="$(HOME)/devel/join/newmaint#FrontDesk"><gettext domain="organization">New Members Front Desk</gettext></a>> <genericemail nm@debian.org> <delegationmail 1520549117.1626889.1296678136.627D6AF7@webmail.messagingengine.com>
    <member>Enrico Zini<delegate_male>
    <member>Jonathan Wiltshire<delegate_male>
    <member>Jonathan McDowell<delegate_male>
    <member>Mattia Rizzolo<delegate_male>
    <member>Santiago Ruano Rincón<delegate_male>
  <job <a name="dam" href="$(HOME)/devel/join/newmaint#DAM"><gettext domain="organization">Debian Account Managers</gettext></a>> <genericemail da-manager@debian.org> <delegationmail 1520549066.1625964.1296675224.2D2C76AE@webmail.messagingengine.com>
    <member>Enrico Zini<delegate_male>
    <member>Joerg Jaspert<delegate_male>
    <member>Jonathan Wiltshire<delegate_male>
    <note <gettext domain="organization">To send a private message to all DAMs, use the GPG key 57731224A9762EA155AB2A530CA8D15BB24D96F2.</gettext>>
  <job <a name="keyring" href="https://keyring.debian.org/"><gettext domain="organization">Keyring Maintainers (PGP and GPG)</gettext></a>> <genericemail keyring-maint@debian.org> <delegationmail 1535701657.2203656.1492256048.477439EA@webmail.messagingengine.com>
    <member>Gunnar Wolf<delegate_male>
    <member>John Sullivan<delegate_male>
    <member>Jonathan McDowell<delegate_male>
  <job <a name="security" href="$(HOME)/security/"><gettext domain="organization">Security Team</gettext></a>> <genericemail team@security.debian.org>
    <member>Alessandro Ghedini
    <member>Florian Weimer
    <member>Luciano Bello
    <member>Michael Gilbert
    <member>Moritz Muehlenhoff
    <member>Raphael Geissert
    <member>Salvatore Bonaccorso
    <member>Sebastien Delafond
    <member>Thijs Kinkhorst
    <member>Yves-Alexis Perez
  <job <a name="consultants" href="$(HOME)/consultants/"><gettext domain="organization">Consultants Page</gettext></a>> <genericemail consultants@debian.org>
    <member>Andrei Popescu
    <member>Giuseppe Sacco
    <member>Holger Wansing
    <member>Martin Schulze
  <job <a name="vendors" href="$(HOME)/CD/vendors/"><gettext domain="organization">CD Vendors Page</gettext></a>> <genericemail cdvendors@debian.org>
    <member>Craig Small
    <member>Richard Atterer
  <job <a name="policy" href="$(DOC)/debian-policy/"><gettext domain="organization">Policy</gettext></a>> <genericemail debian-policy@lists.debian.org> <delegationmail 1534924310.3924040.1482221768.47BABED0@webmail.messagingengine.com>
    <member>Russ Allbery<delegate_male>
    <member>Sean Whitton<delegate_male>
  <job <a name="dsa" href="https://dsa.debian.org/"><gettext domain="organization">System Administration</gettext></a>> <genericemail debian-admin@lists.debian.org> <delegationmail 1518118817.822954.1264430288.6415E1F1@webmail.messagingengine.com>
    <note <gettext domain="organization">This is the address to use when encountering problems on one of Debian's machines, including password problems or you need a package installed.</gettext>>
    <member>Aurelien Jarno<delegate_male>
    <member>Héctor Orón Martínez<delegate_male>
    <member>Julien Cristau<delegate_male>
    <member>Luca Filipozzi<delegate_male>
    <member>Martin Zobel-Helas<delegate_male>
    <member>Paul Wise<delegate_male>
    <member>Peter Palfrader<delegate_male>
    <member>Tollef Fog Heen<delegate_male>
    <note <gettext domain="organization">If you have hardware problems with Debian machines, please see <a href="https://db.debian.org/machines.cgi">Debian Machines</a> page, it should contain per-machine administrator information.</gettext>>
  <job <a name="db" href="https://db.debian.org/"><gettext domain="organization">LDAP Developer Directory Administrator</gettext></a>> <genericemail admin@db.debian.org>
  <job <a name="mirrors" href="$(HOME)/mirror/"><gettext domain="organization">Mirrors</gettext></a>> <genericemail mirrors@debian.org>
    <member>Bastian Blank
    <member>Joerg Jaspert
    <member>Peter Palfrader
    <member>Felipe Augusto van de Wiel
    <member>Raphael Geissert
    <member>Simon Paillard
  <job <a name="dns"><gettext domain="organization">DNS Maintainer</gettext></a>> <genericemail hostmaster@debian.org>
  <job <a name="pts" href="https://packages.qa.debian.org/"><gettext domain="organization">Package Tracking System</gettext></a>> <genericemail owner@packages.qa.debian.org>
    <member>Rapha&euml;l Hertzog
  <job <a name="treasurer" href="https://wiki.debian.org/Teams/Treasurer"><gettext domain="organization">Treasurer</gettext></a>> <genericemail treasurer@debian.org> <delegationmail 20160416194934.GD2171@halon.org.uk>
    <member>Brian Gupta<delegate_male>
    <member>Philipp Hug<delegate_male>
    <member>Hector Oron<delegate_male>
    <member>Martin Michlmayr
    <member>Martin Wuertele
  <job <gettext domain="organization"><a name="trademark" href="m4_HOME/trademark">Trademark</a> use requests</gettext>> <genericemail trademark@debian.org>
    <member>Brian Gupta
    <member>Richard Hartmann
  <job <a name="salsa" href="https://salsa.debian.org/"><gettext domain="organization">Salsa administrators</gettext></a>> <genericemail salsa-admin@debian.org>
    <member>Alexander Wirt
    <member>Bastian Blank
    <member>Joerg Jaspert
</ul>
