<define-tag pagetitle>DLA-1894-1 libapache2-mod-auth-openidc</define-tag>
<define-tag report_date>2019-8-23</define-tag>
<define-tag secrefs>CVE-2019-1010247</define-tag>
<define-tag packages>libapache2-mod-auth-openidc</define-tag>
<define-tag isvulnerable>yes</define-tag>
<define-tag fixed>yes</define-tag>
<define-tag fixed-section>no</define-tag>

#use wml::debian::security

